<?xml version="1.0" encoding="utf-8"?>
<svg width="38" height="38" viewBox="0 0 38 38" fill="none" xmlns="http://www.w3.org/2000/svg">
<g clip-path="url(#clip0)">
<path d="M35.0388 33.2917L29.2192 23.2132C31.495 20.7423 32.8605 17.4586 32.8605 13.8499C32.8605 10.0135 31.3 6.56731 28.7966 4.06393C26.2932 1.56055 22.847 0 19.0106 0C15.1743 0 11.7281 1.56055 9.22471 4.06393C6.72133 6.56731 5.16078 10.0135 5.16078 13.8499C5.16078 17.4586 6.52626 20.7423 8.80206 23.2132L2.98252 33.2917C2.88498 33.4543 2.85247 33.6818 2.9175 33.9094C3.04754 34.267 3.43768 34.4296 3.7953 34.2995L8.44444 32.4464L9.15969 37.4206C9.1922 37.6157 9.28973 37.8108 9.4848 37.9083C9.80992 38.1034 10.2326 37.9733 10.4276 37.6482L16.3122 27.4722C17.1575 27.6347 18.0678 27.7322 18.9456 27.7322C19.8559 27.7322 20.7338 27.6347 21.5791 27.4722L27.4636 37.6482C27.6587 37.9733 28.0813 38.0709 28.4064 37.9083C28.6015 37.8108 28.6991 37.6157 28.7316 37.4206L29.4468 32.4464L34.0959 34.2995C34.4536 34.4296 34.8437 34.267 34.9738 33.9094C35.1688 33.6818 35.1363 33.4543 35.0388 33.2917ZM10.2976 35.2424L9.71238 31.3735C9.64736 31.0159 9.32225 30.7558 8.93211 30.7883C8.86709 30.7883 8.80206 30.8208 8.73704 30.8533L5.12827 32.2838L9.80992 24.1885C11.2729 25.489 13.0285 26.4968 14.9792 27.082L10.2976 35.2424ZM19.0106 26.3343C15.5644 26.3343 12.4433 24.9363 10.2001 22.693C7.95677 20.4497 6.55877 17.3286 6.55877 13.8824C6.55877 10.4362 7.95677 7.31507 10.2001 5.07178C12.4433 2.76347 15.5644 1.36548 19.0106 1.36548C22.4569 1.36548 25.578 2.76347 27.8212 5.00676C30.0645 7.25005 31.4625 10.3711 31.4625 13.8174C31.4625 17.2636 30.0645 20.3847 27.8212 22.6279C25.578 24.9363 22.4569 26.3343 19.0106 26.3343ZM29.2843 30.8533C29.2192 30.8208 29.1542 30.7883 29.0892 30.7883C28.7316 30.7233 28.3739 30.9834 28.3089 31.3735L27.7237 35.2424L23.0421 27.082C24.9927 26.4968 26.7484 25.489 28.2114 24.1885L32.893 32.2838L29.2843 30.8533Z" fill="white"/>
<path d="M25.3829 11.4439C25.2204 11.2164 25.0253 11.0538 24.7977 10.9563C24.5701 10.8587 24.31 10.7937 24.0499 10.8262H21.3515L20.5062 8.16028C20.3762 7.77014 20.0836 7.44503 19.7584 7.24996C19.5309 7.15243 19.3033 7.0874 19.0432 7.0874C18.7831 7.0874 18.5555 7.15243 18.3279 7.24996C17.9703 7.44503 17.7102 7.73763 17.5802 8.16028L16.7349 10.8262H14.0364C13.7763 10.7937 13.5163 10.8587 13.2887 10.9563C13.0611 11.0538 12.866 11.2164 12.7035 11.4439C12.4434 11.8016 12.3784 12.1917 12.4434 12.5818C12.5084 12.972 12.7035 13.3296 13.0611 13.5897L15.3369 15.2153L14.4591 17.8812C14.4591 17.9137 14.4591 17.9462 14.4266 17.9462C14.3615 18.1413 14.3615 18.3689 14.3941 18.5964C14.4266 18.824 14.5241 19.0516 14.6867 19.2467C14.9468 19.6043 15.3044 19.7994 15.6945 19.8644C16.0847 19.9294 16.5073 19.8319 16.8324 19.5718L19.1082 17.9137L21.384 19.5718C21.7416 19.8319 22.1318 19.8969 22.5219 19.8644C22.912 19.7994 23.2697 19.6043 23.5298 19.2467C23.6923 19.0516 23.7573 18.824 23.8224 18.5964C23.8549 18.3689 23.8549 18.1738 23.7899 17.9462C23.7899 17.9137 23.7899 17.8812 23.7573 17.8812L22.8795 15.2153L25.1553 13.5897C25.513 13.3296 25.708 12.972 25.773 12.5818C25.7405 12.2242 25.643 11.8016 25.3829 11.4439ZM24.245 12.4843L24.2125 12.5168L21.5791 14.435C21.3515 14.5975 21.2215 14.9227 21.319 15.1827L22.3268 18.2713V18.3038C22.3268 18.3364 22.3268 18.3689 22.3268 18.4014C22.3268 18.4339 22.3268 18.4664 22.2943 18.4664C22.2618 18.4989 22.2293 18.5314 22.1643 18.5314C22.1318 18.5314 22.0667 18.5314 22.0342 18.4989L19.3683 16.5482C19.2383 16.4507 19.1082 16.4182 18.9457 16.4182C18.8156 16.4182 18.6531 16.4507 18.523 16.5482L15.8571 18.4989C15.8246 18.5314 15.7595 18.5314 15.727 18.5314C15.6945 18.5314 15.6295 18.4989 15.597 18.4664C15.5645 18.4339 15.5645 18.4014 15.5645 18.4014C15.5645 18.3689 15.5645 18.3364 15.5645 18.3038V18.2713L16.5723 15.1827C16.6699 14.8901 16.5723 14.5975 16.3122 14.435L13.8089 12.5168L13.7763 12.4843C13.7438 12.4518 13.7113 12.4193 13.7113 12.3868C13.7113 12.3543 13.7113 12.2892 13.7438 12.2567C13.7438 12.2567 13.7438 12.2242 13.7763 12.2242C13.8089 12.1917 13.8089 12.1917 13.8414 12.1917C13.8739 12.1917 13.9064 12.1592 13.9389 12.1592C13.9714 12.1592 14.0039 12.1592 14.0364 12.1592H17.2226C17.5152 12.1592 17.7752 11.9641 17.8728 11.6715L18.8806 8.55042C18.8806 8.51791 18.9131 8.45288 18.9782 8.45288C19.0107 8.45288 19.0432 8.42037 19.0432 8.42037C19.0757 8.42037 19.1082 8.42037 19.1082 8.45288C19.1407 8.48539 19.1732 8.51791 19.2057 8.55042L20.2136 11.6715C20.3111 11.9316 20.5712 12.1592 20.8638 12.1592H24.0499C24.0825 12.1592 24.115 12.1592 24.1475 12.1592C24.18 12.1592 24.2125 12.1592 24.245 12.1917C24.2775 12.1917 24.2775 12.2242 24.31 12.2242C24.31 12.2242 24.31 12.2567 24.3425 12.2567C24.3751 12.2892 24.3751 12.3217 24.3751 12.3868C24.31 12.4193 24.2775 12.4518 24.245 12.4843Z" fill="white"/>
<path d="M26.6508 6.20976C24.7001 4.25908 22.0016 3.05615 19.0106 3.05615C16.0195 3.05615 13.3211 4.25908 11.3704 6.20976C9.41972 8.16045 8.2168 10.8589 8.2168 13.8499C8.2168 16.841 9.41972 19.5394 11.3704 21.4901C13.3211 23.4408 16.0195 24.6437 19.0106 24.6437C22.0016 24.6437 24.7001 23.4408 26.6508 21.4901C28.6015 19.5394 29.8044 16.841 29.8044 13.8499C29.8044 10.8589 28.6015 8.16045 26.6508 6.20976ZM25.7079 20.5148C23.9848 22.2379 21.6115 23.2783 19.0106 23.2783C16.4097 23.2783 14.0363 22.2054 12.3457 20.5148C10.6226 18.7917 9.58228 16.4509 9.58228 13.8499C9.58228 11.249 10.6552 8.8757 12.3457 7.1851C14.0363 5.462 16.4097 4.38912 19.0106 4.38912C21.6115 4.38912 23.9848 5.462 25.6754 7.15259C27.3985 8.8757 28.4389 11.2165 28.4389 13.8174C28.4389 16.4183 27.3985 18.8242 25.7079 20.5148Z" fill="white"/>
</g>
<defs>
<clipPath id="clip0">
<rect width="38" height="38" fill="white"/>
</clipPath>
</defs>
</svg>
