<svg width="11" height="22" viewBox="0 0 11 22" fill="none" xmlns="http://www.w3.org/2000/svg">
<path d="M10.557 10.9788H7.29433V22H2.35104V10.9788H0V7.10553H2.35104V4.59907C2.35104 2.80669 3.27445 0 7.33833 0L11 0.0141251V3.77381H8.34322C7.90743 3.77381 7.29465 3.97456 7.29465 4.82958V7.10913H10.9889L10.557 10.9788Z" fill="#08393F"/>
</svg>
