<?xml version="1.0" encoding="utf-8"?>
<svg width="26" height="23" viewBox="0 0 26 23" fill="none" xmlns="http://www.w3.org/2000/svg">
<path d="M24.1951 2.11816C22.9832 0.752273 21.3023 5.08942e-05 19.4619 5.08942e-05C17.4495 5.08942e-05 15.6132 0.782266 14.1515 2.26216C13.6432 2.77673 13.2634 3.29084 13 3.69883C12.7366 3.29089 12.3568 2.77683 11.8485 2.26216C10.3868 0.782215 8.55055 0 6.53809 0C2.68602 0 0 3.23157 0 7.07365C0 12.2635 5.48458 16.6334 12.6674 22.8756C12.7629 22.9586 12.8814 23 13 23C13.1186 23 13.2371 22.9586 13.3326 22.8756C20.5325 16.6185 26 12.2563 26 7.07365C26 5.18978 25.359 3.42991 24.1951 2.11816ZM13 21.8172C6.2172 15.9314 1.01562 11.704 1.01562 7.07365C1.01562 3.62163 3.38975 1.01849 6.53809 1.01849C8.28618 1.01849 9.82165 1.66958 11.1018 2.95359C12.0772 3.9318 12.5322 4.93013 12.5367 4.94011C12.6184 5.12277 12.7995 5.24009 12.9992 5.2405C12.9995 5.2405 12.9999 5.2405 13.0002 5.2405C13.1999 5.2405 13.3813 5.12272 13.4634 4.94011C13.4678 4.93013 13.9229 3.93185 14.8982 2.95359C16.1783 1.66953 17.7138 1.01849 19.462 1.01849C22.6103 1.01849 24.9844 3.62163 24.9844 7.07365C24.9844 11.8086 19.4396 16.2292 13 21.8172Z" fill="#28889E"/>
<path d="M23.3327 4.44567C23.2025 4.19656 22.8955 4.10063 22.6472 4.23119C22.3988 4.36181 22.303 4.66958 22.4333 4.91864C22.7685 5.5596 22.9531 6.32506 22.9531 7.07402C22.9531 8.54547 22.2547 10.1072 20.7552 11.9889C20.5801 12.2085 20.6158 12.529 20.8348 12.7046C21.0553 12.8813 21.3746 12.843 21.5486 12.6247C23.1997 10.5528 23.9687 8.78898 23.9687 7.07402C23.9687 6.15009 23.7488 5.24123 23.3327 4.44567Z" fill="#28889E"/>
<path d="M17.875 9.76028H15.0312V6.90864C15.0312 6.62739 14.8039 6.39941 14.5234 6.39941H11.4766C11.1961 6.39941 10.9688 6.62739 10.9688 6.90864V9.76028H8.125C7.84454 9.76028 7.61719 9.98825 7.61719 10.2695V13.3248C7.61719 13.6061 7.84454 13.834 8.125 13.834H10.9688V16.6857C10.9688 16.9669 11.1961 17.1949 11.4766 17.1949H14.5234C14.8039 17.1949 15.0312 16.9669 15.0312 16.6857V13.834H17.875C18.1555 13.834 18.3828 13.6061 18.3828 13.3248V10.2695C18.3828 9.98825 18.1555 9.76028 17.875 9.76028ZM17.3672 12.8156H14.5234C14.243 12.8156 14.0156 13.0435 14.0156 13.3248V16.1764H11.9844V13.3248C11.9844 13.0435 11.757 12.8156 11.4766 12.8156H8.63281V10.7787H11.4766C11.757 10.7787 11.9844 10.5507 11.9844 10.2694V7.41781H14.0156V10.2694C14.0156 10.5507 14.243 10.7787 14.5234 10.7787H17.3672V12.8156Z" fill="#28889E"/>
</svg>
