<?xml version="1.0" encoding="utf-8"?>
<svg width="24" height="24" viewBox="0 0 24 24" fill="none" xmlns="http://www.w3.org/2000/svg">
<path d="M16.4837 1.43257C16.6325 1.28374 16.8186 1.20932 17.0232 1.20932C17.2279 1.20932 17.4139 1.28374 17.5628 1.43257C17.8604 1.73025 17.8604 2.21397 17.5628 2.51164L8.07438 12L17.5628 21.4884C17.8604 21.7861 17.8604 22.2698 17.5628 22.5675C17.2651 22.8651 16.7814 22.8651 16.4837 22.5675L6.45577 12.5395C6.1581 12.2419 6.1581 11.7582 6.45577 11.4605L16.4837 1.43257Z" fill="white"/>
</svg>
