<svg width="24" height="24" viewBox="0 0 24 24" fill="none" xmlns="http://www.w3.org/2000/svg">
<path d="M7.51632 22.5674C7.36748 22.7163 7.18143 22.7907 6.97678 22.7907C6.77213 22.7907 6.58608 22.7163 6.43725 22.5674C6.13957 22.2698 6.13957 21.786 6.43725 21.4884L15.9256 12L6.43725 2.51162C6.13957 2.21394 6.13957 1.73022 6.43725 1.43255C6.73492 1.13487 7.21864 1.13487 7.51632 1.43255L17.5442 11.4605C17.8419 11.7581 17.8419 12.2418 17.5442 12.5395L7.51632 22.5674Z" fill="white"/>
</svg>
