<svg width="30" height="30" viewBox="0 0 30 30" fill="none" xmlns="http://www.w3.org/2000/svg">
<path d="M29.5 15C29.5 23.0081 23.0081 29.5 15 29.5C6.99187 29.5 0.5 23.0081 0.5 15C0.5 6.99187 6.99187 0.5 15 0.5C23.0081 0.5 29.5 6.99187 29.5 15Z" stroke="#28889E"/>
<path d="M12.7889 21.8655C12.6988 21.9552 12.586 22 12.462 22C12.338 22 12.2253 21.9552 12.1351 21.8655C11.9548 21.6862 11.9548 21.3948 12.1351 21.2155L17.8839 15.5L12.1351 9.78448C11.9548 9.60517 11.9548 9.31379 12.1351 9.13448C12.3155 8.95517 12.6086 8.95517 12.7889 9.13448L18.8646 15.175C19.045 15.3543 19.045 15.6457 18.8646 15.825L12.7889 21.8655Z" fill="#28889E"/>
</svg>
