<?xml version="1.0" encoding="utf-8"?>
<svg width="26" height="26" viewBox="0 0 26 26" fill="none" xmlns="http://www.w3.org/2000/svg">
<path d="M23.4805 5.31108C21.4263 2.5119 18.4051 0.680126 14.9733 0.153309C11.5416 -0.373558 8.11001 0.467602 5.31085 2.5218C2.51173 4.576 0.680004 7.5973 0.1532 11.0292C-0.304186 14.0089 0.270251 16.988 1.77378 19.5536C1.77485 19.5555 1.77602 19.5574 1.77708 19.5593C2.00433 19.9467 2.25229 20.3248 2.52164 20.6919C4.3521 23.1863 7.01679 24.949 10.0247 25.6551C10.1618 25.6873 10.2993 25.7166 10.437 25.7443C10.4657 25.7524 10.495 25.7579 10.5248 25.7609C11.3459 25.92 12.1763 26 13.0046 26C13.8385 26 14.6698 25.9187 15.4866 25.7604C15.5109 25.7575 15.5348 25.753 15.5582 25.7467C16.6939 25.5198 17.8004 25.1418 18.8447 24.6148C19.095 24.4885 19.1956 24.1831 19.0692 23.9327C18.9428 23.6824 18.6375 23.5818 18.3871 23.7082C17.7582 24.0256 17.1135 24.2824 16.46 24.4814L18.5655 20.8312L22.6876 20.0569C22.3293 20.5511 21.9295 21.0219 21.4881 21.4636C21.2898 21.662 21.2899 21.9835 21.4882 22.1817C21.6866 22.38 22.008 22.3798 22.2063 22.1816C22.9831 21.4044 23.6518 20.5349 24.2026 19.5981C24.2067 19.5914 24.2108 19.5847 24.2146 19.5778C25.1126 18.0441 25.6933 16.3303 25.9073 14.5425C25.9091 14.5301 25.9106 14.5176 25.9115 14.5051C25.9296 14.3504 25.9456 14.1952 25.9582 14.0393C26.2085 10.9293 25.3286 7.82963 23.4805 5.31108ZM14.8193 1.15708C17.45 1.56095 19.8185 2.79725 21.6308 4.68585L21.0113 10.0125L17.0306 10.9062L13.5213 8.3565V4.54274L14.3031 3.98231C14.531 3.81894 14.5834 3.5017 14.42 3.27379C14.2566 3.04588 13.9395 2.99357 13.7115 3.15689L12.9799 3.68127L9.48202 1.54104C11.1876 1.01585 13.0032 0.87833 14.8193 1.15708ZM9.68123 11.6459L11.335 10.4444L12.9887 9.24286L16.2962 11.6459L15.0329 15.5342H10.9446V15.5341L9.68123 11.6459ZM5.91169 3.34057C6.6534 2.79623 7.44351 2.34483 8.26768 1.98869L12.481 4.56661V8.35655L8.97161 10.9063L4.97523 10.0091L4.15923 4.90843C4.68527 4.33611 5.27088 3.81081 5.91169 3.34057ZM1.15689 11.1833C1.45142 9.26465 2.18902 7.48568 3.299 5.95993L3.98601 10.2546L1.01765 13.249C1.00506 12.5645 1.05096 11.8739 1.15689 11.1833ZM1.11906 14.5892L4.69096 10.986L8.69079 11.884L10.0179 15.9684L7.52013 19.8122L2.54439 18.857C1.79668 17.5279 1.3166 16.0832 1.11906 14.5892ZM3.34033 20.0911C3.32703 20.073 3.31438 20.0545 3.30118 20.0364L7.43599 20.8301L9.54788 24.491C7.13247 23.7627 4.93639 22.266 3.34033 20.0911ZM15.0976 24.8109C13.6981 25.0629 12.2801 25.059 10.9075 24.8155L8.35508 20.391L10.8512 16.5497H15.1508L17.647 20.391L15.0976 24.8109ZM23.4375 18.8827L18.4827 19.8134L15.9842 15.9684L17.3113 11.884L21.3082 10.9866L24.8512 14.6249C24.6508 16.1084 24.1775 17.5568 23.4375 18.8827ZM24.9577 13.2788L22.0062 10.2478L22.5308 5.73785C22.5747 5.79559 22.6187 5.85328 22.6618 5.91194C24.2653 8.09721 25.019 10.7012 24.9577 13.2788Z" fill="#031B1E"/>
<path d="M20.69 22.732C20.5955 22.6376 20.4646 22.5833 20.331 22.5833C20.1974 22.5833 20.0665 22.6376 19.972 22.732C19.8776 22.8265 19.8232 22.9575 19.8232 23.091C19.8232 23.2246 19.8776 23.3556 19.972 23.45C20.0665 23.545 20.1974 23.5988 20.331 23.5988C20.4646 23.5988 20.5955 23.545 20.69 23.45C20.7844 23.3556 20.8388 23.2246 20.8388 23.091C20.8388 22.9575 20.7844 22.8265 20.69 22.732Z" fill="#031B1E"/>
</svg>
