<?xml version="1.0" encoding="utf-8"?>
<svg width="38" height="38" viewBox="0 0 38 38" fill="none" xmlns="http://www.w3.org/2000/svg">
<path d="M31.6668 0C28.1747 0 25.3335 2.84117 25.3335 6.33331C25.3335 9.36247 29.8214 15.4933 30.873 16.8887C30.8727 17.3394 30.873 17.782 30.862 18.1882C30.8505 18.625 31.1953 18.9892 31.6328 19.0007C31.6398 19.0007 31.6468 19.0007 31.6545 19.0007C32.0812 19.0007 32.4338 18.6598 32.4454 18.23C32.4563 17.8132 32.456 17.3582 32.4563 16.8946C33.5008 15.5088 38.0001 9.36604 38.0001 6.33331C38.0001 2.84117 35.1589 0 31.6668 0ZM31.6668 15.2999C29.9265 12.9056 26.9168 8.34887 26.9168 6.33331C26.9168 3.71398 29.0475 1.58331 31.6668 1.58331C34.2861 1.58331 36.4168 3.71398 36.4168 6.33331C36.4168 8.34887 33.4071 12.9055 31.6668 15.2999Z" fill="white"/>
<path d="M31.6668 4.75C30.794 4.75 30.0835 5.4605 30.0835 6.33331C30.0835 7.20612 30.794 7.91662 31.6668 7.91662C32.5396 7.91662 33.2501 7.20619 33.2501 6.33331C33.2501 5.4605 32.5396 4.75 31.6668 4.75Z" fill="white"/>
<path d="M9.5 17.4167C6.88067 17.4167 4.75 19.5474 4.75 22.1667C4.75 24.7861 6.88067 26.9167 9.5 26.9167C12.1193 26.9167 14.25 24.7861 14.25 22.1667C14.25 19.5474 12.1193 17.4167 9.5 17.4167ZM9.5 25.3334C7.75356 25.3334 6.33331 23.9132 6.33331 22.1667C6.33331 20.4202 7.75356 19.0001 9.5 19.0001C11.2464 19.0001 12.6667 20.4202 12.6667 22.1667C12.6667 23.9133 11.2464 25.3334 9.5 25.3334Z" fill="white"/>
<path d="M21.4916 28.5325C21.0819 28.3733 20.6257 28.5766 20.4673 28.9848C20.1124 29.9017 19.6687 30.9709 19.0703 31.9505C18.8422 32.3238 18.9605 32.8109 19.3331 33.039C19.4623 33.1179 19.6045 33.155 19.7452 33.155C20.0119 33.155 20.2724 33.0205 20.4217 32.7762C21.0851 31.6892 21.5636 30.5388 21.9439 29.557C22.1016 29.1494 21.8991 28.691 21.4916 28.5325Z" fill="white"/>
<path d="M17.0276 34.3099C16.2343 34.9384 15.333 35.4116 14.2707 35.7571C13.8547 35.8924 13.6274 36.3393 13.7627 36.7552C13.8717 37.0892 14.1817 37.3018 14.5157 37.3018C14.5969 37.3018 14.6796 37.2895 14.7608 37.2632C15.9877 36.8643 17.0809 36.2883 18.011 35.5515C18.3535 35.2793 18.4115 34.7814 18.1401 34.4389C17.8664 34.0973 17.3693 34.0362 17.0276 34.3099Z" fill="white"/>
<path d="M24.2325 22.8168C22.9259 23.5583 22.2 24.8454 21.767 25.7485C21.5776 26.1428 21.7438 26.6159 22.1381 26.8045C22.2487 26.8579 22.3654 26.8826 22.4798 26.8826C22.7751 26.8826 23.0581 26.7172 23.1941 26.4334C23.7438 25.2869 24.3051 24.5965 25.0148 24.1929C25.3944 23.9772 25.5282 23.494 25.3117 23.1136C25.0968 22.7333 24.6151 22.5996 24.2325 22.8168Z" fill="white"/>
<path d="M31.3727 20.8571C31.0131 20.6136 30.5191 20.7071 30.2733 21.0689C30.0128 21.4539 29.4793 21.9835 27.8658 22.1281C27.4305 22.1675 27.1089 22.5517 27.1483 22.9877C27.1854 23.3991 27.531 23.7083 27.9361 23.7083C27.9601 23.7083 27.9841 23.7075 28.008 23.7051C29.722 23.5513 30.8917 22.9792 31.5845 21.9563C31.8296 21.5946 31.7345 21.1021 31.3727 20.8571Z" fill="white"/>
<path d="M11.3759 36.427C13.8739 33.7631 19 27.6347 19 22.1667C19 16.84 14.8268 12.6667 9.5 12.6667C4.17325 12.6667 0 16.84 0 22.1667C0 29.2368 8.59082 37.438 8.9565 37.7836C9.10879 37.9282 9.30443 38.0001 9.5 38.0001C10.0768 38.0001 10.6249 37.98 11.1444 37.9406C11.5804 37.9074 11.9074 37.5277 11.8742 37.0917C11.8504 36.7796 11.6485 36.5362 11.3759 36.427ZM9.5 36.092C7.62984 34.184 1.58331 27.594 1.58331 22.1667C1.58331 17.7275 5.06083 14.2501 9.5 14.2501C13.9392 14.2501 17.4167 17.7275 17.4167 22.1667C17.4167 27.594 11.3702 34.184 9.5 36.092Z" fill="white"/>
</svg>
